com\mycompany\shape\Rectangle.class
com\mycompany\shape\Circle.class
com\mycompany\shape\Square.class
com\mycompany\shape\Shape.class
com\mycompany\shape\Triangle.class
com\mycompany\shape\TestShape.class
